Channel:0,Module:11
voltage_set,voltage_meas,i_ISEG,i_AMAC
-1,-0.7137,0.01068,3168.16
-11,-10.7365,-3.48143,3153.75
-21,-20.7853,-4.49639,3134.28
-31,-30.8031,-5.50756,3105.07
-41,-40.7822,-6.51593,3148.42
-51,-50.7795,-7.52295,3137.38
-61,-60.8019,-8.5397,3212.97
-71,-70.7862,-9.54841,3155.76
-81,-80.7893,-10.5592,3196.39
-91,-90.806,-11.5676,3203.84
-101,-100.806,-12.5784,3219.12
-111,-110.769,-13.5801,3224.39
-121,-120.799,-14.5917,3194.1
-131,-130.794,-15.6007,3208.62
-141,-140.822,-16.6119,3189.42
-151,-150.791,-17.6195,3191.22
-161,-160.783,-18.6164,3188.28
-171,-170.811,-19.6447,3209.06
-181,-180.777,-20.6,3182.46
-191,-190.785,-21.63,3223.2
-201,-200.81,-22.7,3188.88
-211,-210.801,-23.7,3228.53
-221,-220.79,-24.7,3233.37
-231,-230.814,-25.7,3201.23
-241,-240.815,-26.7,3234.29
-251,-250.831,-27.8,3241.14
-261,-260.798,-28.8,3258.06
-271,-270.803,-29.8,3225.43
-281,-280.818,-30.8,3193.67
-291,-290.814,-31.8,3206.17
