Channel:2,Module:6
voltage_set,voltage_meas,i_ISEG,i_AMAC
-1,-5.8852,0.00744,1148.02
-26,-25.8377,-2.64817,1124.51
-51,-50.8533,-5.18062,1199.06
-76,-75.8652,-7.70424,1146.09
-101,-100.872,-10.2335,1129.62
-126,-125.858,-12.7626,1145.26
-151,-150.868,-15.301,1092.39
-176,-175.865,-17.5904,1160.12
-201,-200.882,-20.4,1201.62
-226,-225.903,-22.9,1180.14
-251,-250.86,-25.5,1206.05
-276,-275.863,-28,1136.34
