Channel:3,Module:2
voltage_set,voltage_meas,i_ISEG,i_AMAC
-1,-0.7567,-0.05163,681.757
-11,-10.7585,-2.24373,2416.58
-21,-20.8112,-6.12211,9619.63
-31,-30.7793,-12.5137,15704.9
-41,-40.8141,-25.17,28300.4
-51,-50.8259,-41.22,43376.4
-61,-60.8443,-70.63,75789.3
-71,-70.8198,-115.48,121441
-81,-80.8259,-161.14,165326
-91,-90.8441,-219.44,222626
