Channel:3,Module:2
voltage_set,voltage_meas,i_ISEG,i_AMAC
0,0.057,-0.00205,513.031
-10,-9.7141,-5.86188,2993.61
-20,-19.7738,-14.7912,10201.2
-30,-29.8043,-27.44,22313
-40,-39.7976,-44.42,35521.7
-50,-49.7799,-67.9,57183.1
-60,-59.7948,-100.77,88096.8
-70,-69.8041,-136.71,120122
-80,-79.786,-181.13,160903
-90,-89.8136,-233.82,210342
-100,-99.8042,-288.85,261799
-110,-109.827,-349.43,317824
-120,-119.802,-413.41,378733
-130,-129.798,-481.49,442783
-140,-139.829,-552.78,666431
-150,-149.818,-658.52,819009
-160,-159.787,-734.78,906933
-170,-161.93,-765.8,953193
-180,-161.919,-765.8,946749
-190,-161.922,-765.8,947899
