Channel:2,Module:6
voltage_set,voltage_meas,i_ISEG,i_AMAC
-1,-2.3318,0.00202,0
-11,-10.7291,-1.12741,0
-21,-20.7825,-2.14551,0
-31,-30.7503,-3.1525,0
-41,-40.7767,-4.16416,0
-51,-50.7852,-5.17648,0
-61,-60.8043,-6.18734,0
-71,-70.7844,-7.19352,0
-81,-80.7833,-8.20382,0
-91,-90.8022,-9.2154,0
-101,-100.805,-10.2288,0
-111,-110.768,-11.2381,0
-121,-120.798,-12.256,0
-131,-130.801,-13.2666,0
-141,-140.765,-14.2763,0
-151,-150.8,-15.2956,0
-161,-160.788,-16.3053,0
-171,-170.817,-17.3311,0
-181,-180.781,-18.3327,0
-191,-190.782,-19.3558,0
-201,-200.815,-20.39,0
-211,-210.803,-21.4,0
-221,-220.803,-22.4,0
-231,-230.817,-23.4,0
-241,-240.821,-24.4,0
-251,-250.792,-25.5,0
-261,-260.814,-26.5,0
-271,-270.815,-27.5,0
-281,-280.83,-28.5,0
-291,-290.799,-29.6,0
-301,-300.8,-30.6,0
